[
    {"bookId": 1, "author" : "Akbar1" , "title": "Sample1", "price": "50", "publishedYear":"2018"},
    {"bookId": 2, "author" : "Akbar2" , "title": "Book2", "price": "60", "publishedYear":"2019"},
    {"bookId": 3, "author" : "Akbar3" , "title": "Angular", "price": "150", "publishedYear":"2018"},
    {"bookId": 4, "author" : "Akbar4" , "title": "Book4", "price": "260", "publishedYear":"2014"},
    {"bookId": 5, "author" : "Akbar5" , "title": "Book5", "price": "530", "publishedYear":"2018"},
    {"bookId": 6, "author" : "Akbar6" , "title": "Book6", "price": "610", "publishedYear":"2015"},
    {"bookId": 7, "author" : "Akbar7" , "title": "MyBook7", "price": "55", "publishedYear":"2018"},
    {"bookId": 8, "author" : "Akbar8" , "title": "Book8", "price": "10", "publishedYear":"2019"}
 ]